{
  "compilerOptions": {
    "noLib": true,
    "checkJs": true,
    "target": "es2017",
    "module": "es6",
    "moduleResolution": "node",
    "allowSyntheticDefaultImports": true
  },
  "exclude": [
    "node_modules",
    "**/node_modules/*",
    "public/static/**",
    "config",
    "docker",
    "logs"
  ]
}
